2014-03-19 03:29:27.3623 ERROR CreateAuthor failed. Input: Name: aTwitterCallSign: b
2014-03-19 05:25:01.0146 ERROR CreateAuthor failed. Input: Name: A TwitterCallSign: A 
2014-03-19 05:26:42.5771 ERROR CreateAuthor failed. Input: Name: A TwitterCallSign: A  Exception: The model backing the 'BlogContext' context has changed since the database was created. Consider using Code First Migrations to update the database (http://go.microsoft.com/fwlink/?LinkId=238269).
2014-03-19 05:29:10.6445 ERROR CreateAuthor failed. Input: Name: A TwitterCallSign: A  Exception: The model backing the 'BlogContext' context has changed since the database was created. Consider using Code First Migrations to update the database (http://go.microsoft.com/fwlink/?LinkId=238269).
